{
	"viewId":"ThumbView",
			"widgets":{
						"ThumbRoller": ["MildenhallRollerContainer", "VideoPlayer_ThumbView_ThumbRoller_prop", 0, 5, 1],
						"ThumbSortRoller": ["MildenhallRollerContainer","VideoPlayer_ThumbView_SortRoller_prop",660,0,2],
						"ThumbViewsDrawer":["MildenhallViewsDrawer","VideoPlayer_ThumbView_ViewsDrawer_prop", 660, 51, 3],
						"ThumbContextDrawer":["MildenhallContextDrawer","VideoPlayer_ThumbView_ContextDrawer_prop", 660, 394, 5],
						"Overlay":["MildenhallOverlay", "VideoPlayer_ThumbView_Overlay_prop", 0, 0, 4]
					  }
}
