
{
	"3":{
		"roller-type":{
			"gint":0
		}
	},
	"1":{
		"width":{
			"gfloat":63.0
		}
	},
	"2":{
		"height":{
                	"gfloat":480.0
		}
        },
	"4":{
		"roll-over":{
                	"gboolean":true
		}
	},
	"5":{
		"reactive":{
			"gboolean":true
		}
        },
	"6":{
		"show-arrow":{
			"gboolean":false
		}
	},
	"7":{
		"arrow-position":{
			"gfloat":-1.0
		}
	},
	 "8":{
                "x":{
                        "gfloat":660.0
                }
        },
	"9":{
                "item-type":{
                        "GType":"MildenhallSortRoller"
                }
        }
}
